{
  "project_info": {
    "project_number": "1068427628215",
    "firebase_url": "https://jjiffee-9f05c.firebaseio.com",
    "project_id": "jjiffee-9f05c",
    "storage_bucket": "jjiffee-9f05c.appspot.com"
  },
  "client": [
    {
      "client_info": {
        "mobilesdk_app_id": "1:1068427628215:android:d8245dc6c6c9be31",
        "android_client_info": {
          "package_name": "com.cab.bhsmun"
        }
      },
      "oauth_client": [
        {
          "client_id": "1068427628215-atm677tv8pj2b0r06s94b2enl1c9pavf.apps.googleusercontent.com",
          "client_type": 3
        }
      ],
      "api_key": [
        {
          "current_key": "AIzaSyBbPs6GSZtMBzfzPIDDyusWAUJFXWAvPXU"
        }
      ],
      "services": {
        "appinvite_service": {
          "other_platform_oauth_client": [
            {
              "client_id": "1068427628215-atm677tv8pj2b0r06s94b2enl1c9pavf.apps.googleusercontent.com",
              "client_type": 3
            },
            {
              "client_id": "1068427628215-akdl24a4qe6ptmjitq8d6s790pp8ekb8.apps.googleusercontent.com",
              "client_type": 2,
              "ios_info": {
                "bundle_id": "com.chitandbridge.jjiffee"
              }
            }
          ]
        }
      }
    },
    {
      "client_info": {
        "mobilesdk_app_id": "1:1068427628215:android:ea2a354dd84cdd16",
        "android_client_info": {
          "package_name": "com.cab.cabalogue"
        }
      },
      "oauth_client": [
        {
          "client_id": "1068427628215-3jqgubdthvgu8td37be068hor09afgkn.apps.googleusercontent.com",
          "client_type": 1,
          "android_info": {
            "package_name": "com.cab.cabalogue",
            "certificate_hash": "41c7774e82cdc2ed9bc7648d4ff6649b356d9660"
          }
        },
        {
          "client_id": "1068427628215-atm677tv8pj2b0r06s94b2enl1c9pavf.apps.googleusercontent.com",
          "client_type": 3
        }
      ],
      "api_key": [
        {
          "current_key": "AIzaSyBbPs6GSZtMBzfzPIDDyusWAUJFXWAvPXU"
        }
      ],
      "services": {
        "appinvite_service": {
          "other_platform_oauth_client": [
            {
              "client_id": "1068427628215-atm677tv8pj2b0r06s94b2enl1c9pavf.apps.googleusercontent.com",
              "client_type": 3
            },
            {
              "client_id": "1068427628215-akdl24a4qe6ptmjitq8d6s790pp8ekb8.apps.googleusercontent.com",
              "client_type": 2,
              "ios_info": {
                "bundle_id": "com.chitandbridge.jjiffee"
              }
            }
          ]
        }
      }
    },
    {
      "client_info": {
        "mobilesdk_app_id": "1:1068427628215:android:fd960fc4b39db634",
        "android_client_info": {
          "package_name": "com.cab.dental"
        }
      },
      "oauth_client": [
        {
          "client_id": "1068427628215-atm677tv8pj2b0r06s94b2enl1c9pavf.apps.googleusercontent.com",
          "client_type": 3
        }
      ],
      "api_key": [
        {
          "current_key": "AIzaSyBbPs6GSZtMBzfzPIDDyusWAUJFXWAvPXU"
        }
      ],
      "services": {
        "appinvite_service": {
          "other_platform_oauth_client": [
            {
              "client_id": "1068427628215-atm677tv8pj2b0r06s94b2enl1c9pavf.apps.googleusercontent.com",
              "client_type": 3
            },
            {
              "client_id": "1068427628215-akdl24a4qe6ptmjitq8d6s790pp8ekb8.apps.googleusercontent.com",
              "client_type": 2,
              "ios_info": {
                "bundle_id": "com.chitandbridge.jjiffee"
              }
            }
          ]
        }
      }
    },
    {
      "client_info": {
        "mobilesdk_app_id": "1:1068427628215:android:5532267f744faab3",
        "android_client_info": {
          "package_name": "com.cab.digicafe"
        }
      },
      "oauth_client": [
        {
          "client_id": "1068427628215-d6he6e0du1gukqitlu9eko4e6ggrbgg3.apps.googleusercontent.com",
          "client_type": 1,
          "android_info": {
            "package_name": "com.cab.digicafe",
            "certificate_hash": "19620bafa29fce5ca2ae59019f2b7c1b789b0155"
          }
        },
        {
          "client_id": "1068427628215-r1i1r86i2vk2ue0mg9kmes6l3qjsvbkl.apps.googleusercontent.com",
          "client_type": 1,
          "android_info": {
            "package_name": "com.cab.digicafe",
            "certificate_hash": "d6be126718e8641aaa5a94fb95c62161aa388a5a"
          }
        },
        {
          "client_id": "1068427628215-86ebivtjnvs8a587jr099j812nfbjarm.apps.googleusercontent.com",
          "client_type": 1,
          "android_info": {
            "package_name": "com.cab.digicafe",
            "certificate_hash": "cd73613bb980cddcfbc7978a6afc06ecfd47d3b3"
          }
        },
        {
          "client_id": "1068427628215-atm677tv8pj2b0r06s94b2enl1c9pavf.apps.googleusercontent.com",
          "client_type": 3
        }
      ],
      "api_key": [
        {
          "current_key": "AIzaSyBbPs6GSZtMBzfzPIDDyusWAUJFXWAvPXU"
        }
      ],
      "services": {
        "appinvite_service": {
          "other_platform_oauth_client": [
            {
              "client_id": "1068427628215-atm677tv8pj2b0r06s94b2enl1c9pavf.apps.googleusercontent.com",
              "client_type": 3
            },
            {
              "client_id": "1068427628215-akdl24a4qe6ptmjitq8d6s790pp8ekb8.apps.googleusercontent.com",
              "client_type": 2,
              "ios_info": {
                "bundle_id": "com.chitandbridge.jjiffee"
              }
            }
          ]
        }
      }
    },
    {
      "client_info": {
        "mobilesdk_app_id": "1:1068427628215:android:8cace25df731dda3",
        "android_client_info": {
          "package_name": "com.cab.digimart"
        }
      },
      "oauth_client": [
        {
          "client_id": "1068427628215-m6qvk6p60arshra9erjs361aoihs5rfv.apps.googleusercontent.com",
          "client_type": 1,
          "android_info": {
            "package_name": "com.cab.digimart",
            "certificate_hash": "cd73613bb980cddcfbc7978a6afc06ecfd47d3b3"
          }
        },
        {
          "client_id": "1068427628215-ebb0h2l537jabo5skb94a72iuetosj3m.apps.googleusercontent.com",
          "client_type": 1,
          "android_info": {
            "package_name": "com.cab.digimart",
            "certificate_hash": "2067becd46f8da5e0b153a14c73847cc9f6b8f91"
          }
        },
        {
          "client_id": "1068427628215-atm677tv8pj2b0r06s94b2enl1c9pavf.apps.googleusercontent.com",
          "client_type": 3
        }
      ],
      "api_key": [
        {
          "current_key": "AIzaSyBbPs6GSZtMBzfzPIDDyusWAUJFXWAvPXU"
        }
      ],
      "services": {
        "appinvite_service": {
          "other_platform_oauth_client": [
            {
              "client_id": "1068427628215-atm677tv8pj2b0r06s94b2enl1c9pavf.apps.googleusercontent.com",
              "client_type": 3
            },
            {
              "client_id": "1068427628215-akdl24a4qe6ptmjitq8d6s790pp8ekb8.apps.googleusercontent.com",
              "client_type": 2,
              "ios_info": {
                "bundle_id": "com.chitandbridge.jjiffee"
              }
            }
          ]
        }
      }
    },
    {
      "client_info": {
        "mobilesdk_app_id": "1:1068427628215:android:1b60f6e9aa374fc3",
        "android_client_info": {
          "package_name": "com.cab.jmall.my"
        }
      },
      "oauth_client": [
        {
          "client_id": "1068427628215-br4o3sj272jkfeah89vjgau1b3g2hv4q.apps.googleusercontent.com",
          "client_type": 1,
          "android_info": {
            "package_name": "com.cab.jmall.my",
            "certificate_hash": "bac1d3ea67a7b3d7691e08511be52a9da5a579fe"
          }
        },
        {
          "client_id": "1068427628215-ifeub08r5uq1h2v2uv8cah8ia93t91sa.apps.googleusercontent.com",
          "client_type": 1,
          "android_info": {
            "package_name": "com.cab.jmall.my",
            "certificate_hash": "2b46bd9dcb2adf0674253fdde6dbb13f44ae3e06"
          }
        },
        {
          "client_id": "1068427628215-7bttcmo0rsvid14n8hgcvepl86noaom4.apps.googleusercontent.com",
          "client_type": 1,
          "android_info": {
            "package_name": "com.cab.jmall.my",
            "certificate_hash": "d6be126718e8641aaa5a94fb95c62161aa388a5a"
          }
        },
        {
          "client_id": "1068427628215-t6mesd18vk9ci9tqcutsamnkn53rf1e0.apps.googleusercontent.com",
          "client_type": 1,
          "android_info": {
            "package_name": "com.cab.jmall.my",
            "certificate_hash": "cd73613bb980cddcfbc7978a6afc06ecfd47d3b3"
          }
        },
        {
          "client_id": "1068427628215-atm677tv8pj2b0r06s94b2enl1c9pavf.apps.googleusercontent.com",
          "client_type": 3
        }
      ],
      "api_key": [
        {
          "current_key": "AIzaSyBbPs6GSZtMBzfzPIDDyusWAUJFXWAvPXU"
        }
      ],
      "services": {
        "appinvite_service": {
          "other_platform_oauth_client": [
            {
              "client_id": "1068427628215-atm677tv8pj2b0r06s94b2enl1c9pavf.apps.googleusercontent.com",
              "client_type": 3
            },
            {
              "client_id": "1068427628215-akdl24a4qe6ptmjitq8d6s790pp8ekb8.apps.googleusercontent.com",
              "client_type": 2,
              "ios_info": {
                "bundle_id": "com.chitandbridge.jjiffee"
              }
            }
          ]
        }
      }
    },
    {
      "client_info": {
        "mobilesdk_app_id": "1:1068427628215:android:5a4e3576545cb893",
        "android_client_info": {
          "package_name": "com.cab.omantex"
        }
      },
      "oauth_client": [
        {
          "client_id": "1068427628215-stnf76c7fufn9ff1s2el4ohrcg9lpr9h.apps.googleusercontent.com",
          "client_type": 1,
          "android_info": {
            "package_name": "com.cab.omantex",
            "certificate_hash": "cd73613bb980cddcfbc7978a6afc06ecfd47d3b3"
          }
        },
        {
          "client_id": "1068427628215-atm677tv8pj2b0r06s94b2enl1c9pavf.apps.googleusercontent.com",
          "client_type": 3
        }
      ],
      "api_key": [
        {
          "current_key": "AIzaSyBbPs6GSZtMBzfzPIDDyusWAUJFXWAvPXU"
        }
      ],
      "services": {
        "appinvite_service": {
          "other_platform_oauth_client": [
            {
              "client_id": "1068427628215-atm677tv8pj2b0r06s94b2enl1c9pavf.apps.googleusercontent.com",
              "client_type": 3
            },
            {
              "client_id": "1068427628215-akdl24a4qe6ptmjitq8d6s790pp8ekb8.apps.googleusercontent.com",
              "client_type": 2,
              "ios_info": {
                "bundle_id": "com.chitandbridge.jjiffee"
              }
            }
          ]
        }
      }
    },
    {
      "client_info": {
        "mobilesdk_app_id": "1:1068427628215:android:32d9eefa0d042c12",
        "android_client_info": {
          "package_name": "com.cab.test"
        }
      },
      "oauth_client": [
        {
          "client_id": "1068427628215-atm677tv8pj2b0r06s94b2enl1c9pavf.apps.googleusercontent.com",
          "client_type": 3
        }
      ],
      "api_key": [
        {
          "current_key": "AIzaSyBbPs6GSZtMBzfzPIDDyusWAUJFXWAvPXU"
        }
      ],
      "services": {
        "appinvite_service": {
          "other_platform_oauth_client": [
            {
              "client_id": "1068427628215-atm677tv8pj2b0r06s94b2enl1c9pavf.apps.googleusercontent.com",
              "client_type": 3
            },
            {
              "client_id": "1068427628215-akdl24a4qe6ptmjitq8d6s790pp8ekb8.apps.googleusercontent.com",
              "client_type": 2,
              "ios_info": {
                "bundle_id": "com.chitandbridge.jjiffee"
              }
            }
          ]
        }
      }
    },
    {
      "client_info": {
        "mobilesdk_app_id": "1:1068427628215:android:8d5e6e55d7009fe7",
        "android_client_info": {
          "package_name": "com.cab.texvalley"
        }
      },
      "oauth_client": [
        {
          "client_id": "1068427628215-atm677tv8pj2b0r06s94b2enl1c9pavf.apps.googleusercontent.com",
          "client_type": 3
        }
      ],
      "api_key": [
        {
          "current_key": "AIzaSyBbPs6GSZtMBzfzPIDDyusWAUJFXWAvPXU"
        }
      ],
      "services": {
        "appinvite_service": {
          "other_platform_oauth_client": [
            {
              "client_id": "1068427628215-atm677tv8pj2b0r06s94b2enl1c9pavf.apps.googleusercontent.com",
              "client_type": 3
            },
            {
              "client_id": "1068427628215-akdl24a4qe6ptmjitq8d6s790pp8ekb8.apps.googleusercontent.com",
              "client_type": 2,
              "ios_info": {
                "bundle_id": "com.chitandbridge.jjiffee"
              }
            }
          ]
        }
      }
    },
    {
      "client_info": {
        "mobilesdk_app_id": "1:1068427628215:android:f6df2090973a6147",
        "android_client_info": {
          "package_name": "com.chitandbridge.jjiffee"
        }
      },
      "oauth_client": [
        {
          "client_id": "1068427628215-l2l6la2gd4p75uf7uba4c8b9s476mm1o.apps.googleusercontent.com",
          "client_type": 1,
          "android_info": {
            "package_name": "com.chitandbridge.jjiffee",
            "certificate_hash": "c043130bc002601133309946942007884d47a4b3"
          }
        },
        {
          "client_id": "1068427628215-r1hp5e4mv2e5kq7ekb16ds9aq8ncmglu.apps.googleusercontent.com",
          "client_type": 1,
          "android_info": {
            "package_name": "com.chitandbridge.jjiffee",
            "certificate_hash": "343e8c03d1a888bd82019ff14de41f8c6ff840b0"
          }
        },
        {
          "client_id": "1068427628215-atm677tv8pj2b0r06s94b2enl1c9pavf.apps.googleusercontent.com",
          "client_type": 3
        }
      ],
      "api_key": [
        {
          "current_key": "AIzaSyBbPs6GSZtMBzfzPIDDyusWAUJFXWAvPXU"
        }
      ],
      "services": {
        "appinvite_service": {
          "other_platform_oauth_client": [
            {
              "client_id": "1068427628215-atm677tv8pj2b0r06s94b2enl1c9pavf.apps.googleusercontent.com",
              "client_type": 3
            },
            {
              "client_id": "1068427628215-akdl24a4qe6ptmjitq8d6s790pp8ekb8.apps.googleusercontent.com",
              "client_type": 2,
              "ios_info": {
                "bundle_id": "com.chitandbridge.jjiffee"
              }
            }
          ]
        }
      }
    }
  ],
  "configuration_version": "1"
}